Project/filtstate.vcd
$date
	Wed Jun 16 16:13:38 2021
$end
$version
	Icarus Verilog
$end
$timescale
	1ps
$end
$scope module state $end
$var wire 1 ! clk $end
$var wire 8 " r_data [7:0] $end
$var wire 1 # rd_uart $end
$var wire 1 $ reset $end
$var wire 1 % rx_empty $end
$var wire 1 & rx_full $end
$var wire 1 ' tx_empty $end
$var wire 1 ( tx_full $end
$var wire 1 ) wr_uart $end
$var wire 16 * y [15:0] $end
$var wire 8 + w_data [7:0] $end
$var reg 16 , a1_next [15:0] $end
$var reg 16 - a1_reg [15:0] $end
$var reg 16 . a2_next [15:0] $end
$var reg 16 / a2_reg [15:0] $end
$var reg 16 0 b0_next [15:0] $end
$var reg 16 1 b0_reg [15:0] $end
$var reg 16 2 b1_next [15:0] $end
$var reg 16 3 b1_reg [15:0] $end
$var reg 16 4 b2_next [15:0] $end
$var reg 16 5 b2_reg [15:0] $end
$var reg 1 6 clk_2 $end
$var reg 32 7 cmd_next [31:0] $end
$var reg 32 8 cmd_reg [31:0] $end
$var reg 4 9 ptr_next [3:0] $end
$var reg 4 : ptr_reg [3:0] $end
$var reg 2 ; state_next [1:0] $end
$var reg 2 < state_reg [1:0] $end
$var reg 16 = x_next [15:0] $end
$var reg 16 > x_reg [15:0] $end
$scope module filt $end
$var wire 16 ? a1 [15:0] $end
$var wire 16 @ a2 [15:0] $end
$var wire 16 A b0 [15:0] $end
$var wire 16 B b1 [15:0] $end
$var wire 16 C b2 [15:0] $end
$var wire 1 6 clk $end
$var wire 1 $ reset $end
$var wire 16 D x [15:0] $end
$var wire 32 E w_n [31:0] $end
$var wire 32 F pd5 [31:0] $end
$var wire 32 G pd4 [31:0] $end
$var wire 32 H pd3 [31:0] $end
$var wire 32 I pd2 [31:0] $end
$var wire 32 J pd1 [31:0] $end
$var reg 32 K w_n1 [31:0] $end
$var reg 32 L w_n2 [31:0] $end
$var reg 32 M xin [31:0] $end
$var reg 16 N y [15:0] $end
$var reg 32 O yout [31:0] $end
$upscope $end
$upscope $end
$enddefinitions $end
#0
$dumpvars
b0 O
b0 N
b0 M
b0 L
b0 K
b0 J
b0 I
b0 H
b0 G
b0 F
b0 E
b0 D
b0 C
b0 B
b0 A
b0 @
b0 ?
b0 >
b0 =
b10 <
b10 ;
b0 :
b0 9
b0 8
b0 7
06
b0 5
b0 4
b0 3
b0 2
b0 1
b0 0
b0 /
b0 .
b0 -
b0 ,
b0 +
b0 *
z)
z(
z'
z&
z%
1$
z#
b0 "
1!
$end
#10000
0!
#20000
1!
#30000
0!
#40000
b1100011 7
b1100011 "
16
0$
1!
#50000
0!
#60000
b1101111 "
b110001101101111 7
b1100011 8
06
1!
#70000
0!
#80000
b1100101 "
b11000110110111101100101 7
16
b110001101101111 8
1!
#90000
0!
#100000
b1100110 "
b1100011011011110110010101100110 7
b11000110110111101100101 8
06
1!
#110000
0!
#120000
b0 "
b0 ;
b1101111011001010110011000000000 7
16
b1100011011011110110010101100110 8
1!
#130000
0!
#140000
b1 "
b1 9
b1100101011001100000000000000001 7
b0 <
b1101111011001010110011000000000 8
06
1!
#150000
0!
#160000
b0 "
b1 0
b10 9
b1100110000000000000000100000000 7
16
b1 :
b1100101011001100000000000000001 8
1!
#170000
0!
#180000
b1 "
b11 9
b10000000000000001 7
b1 1
b1 A
b10 :
b1100110000000000000000100000000 8
06
1!
#190000
0!
#200000
b0 "
b1 2
b100 9
b1000000000000000100000000 7
16
b11 :
b10000000000000001 8
1!
#210000
0!
#220000
b1 "
b101 9
b10000000000000001 7
b1 3
b1 B
b100 :
b1000000000000000100000000 8
06
1!
#230000
0!
#240000
b0 "
b1 4
b110 9
b1000000000000000100000000 7
16
b101 :
b10000000000000001 8
1!
#250000
0!
#260000
b1 "
b111 9
b10000000000000001 7
b1 5
b1 C
b110 :
b1000000000000000100000000 8
06
1!
#270000
0!
#280000
b0 "
b1 ,
b1000 9
b1000000000000000100000000 7
16
b111 :
b10000000000000001 8
1!
#290000
0!
#300000
b1 "
b1001 9
b10000000000000001 7
b1 -
b1 ?
b1000 :
b1000000000000000100000000 8
06
1!
#310000
0!
#320000
b11111111 "
b1 ;
b1 .
b0 9
b1000000000000000111111111 7
16
b1001 :
b10000000000000001 8
1!
#330000
0!
#340000
b11110110 "
b11111111 =
b1 9
b11111111111110110 7
b1 /
b1 @
b0 :
b1 <
b1000000000000000111111111 8
06
1!
#350000
0!
#360000
b11111111 "
b1111111111110110 =
b0 9
b1111111111111011011111111 7
16
b11111111 >
b11111111 D
b1 :
b11111111111110110 8
1!
#370000
0!
#380000
b11110111 "
b11111111111111111111111111110110 H
b11111111111111111111111111110110 E
b11111111111111111111111111110110 M
b1111011011111111 =
b1 9
b11111111111101101111111111110111 7
b1111111111110110 >
b1111111111110110 D
b0 :
b1111111111111011011111111 8
06
1!
#390000
0!
#400000
b11111111 "
b1111111111110111 =
b0 9
b11110110111111111111011111111111 7
16
b1111011011111111 >
b1111011011111111 D
b1 :
b11111111111101101111111111110111 8
1!
#410000
0!
#420000
b11111000 "
b11111111 +
b1111111111110110 *
b1111111111110110 N
b11111111111111111111111111110110 O
b11111111111111111111111111110110 J
b11111111111111111111111111110110 G
b11111111111111111111111111110110 K
b1 H
b1 E
b11111111111111111111111111110111 M
b1111011111111111 =
b1 9
b11111111111101111111111111111000 7
b1111111111110111 >
b1111111111110111 D
b0 :
b11110110111111111111011111111111 8
06
1!
#430000
0!
#440000
b11111111 "
b11110110 +
b1111111111111000 =
b0 9
b11110111111111111111100011111111 7
16
b1111011111111111 >
b1111011111111111 D
b1 :
b11111111111101111111111111111000 8
1!
#450000
0!
#460000
b11111001 "
b1111111111110111 *
b1111111111110111 N
b11111111111111111111111111111000 M
b1 J
b1 G
b1 K
b1 H
b1 E
b11111111111111111111111111110110 I
b11111111111111111111111111110110 F
b11111111111111111111111111110110 L
b11111111111111111111111111110111 O
b11111111 +
b1111100011111111 =
b1 9
b11111111111110001111111111111001 7
b1111111111111000 >
b1111111111111000 D
b0 :
b11110111111111111111100011111111 8
06
1!
#470000
0!
#480000
b11111111 "
b11110111 +
b1111111111111001 =
b0 9
b11111000111111111111100111111111 7
16
b1111100011111111 >
b1111100011111111 D
b1 :
b11111111111110001111111111111001 8
1!
#490000
0!
#500000
b11111010 "
b1111111111111000 *
b1111111111111000 N
b11111111111111111111111111111000 O
b1 I
b1 F
b1 L
b11111111111111111111111111110111 H
b11111111111111111111111111110111 E
b11111111111111111111111111111001 M
b11111111 +
b1111100111111111 =
b1 9
b11111111111110011111111111111010 7
b1111111111111001 >
b1111111111111001 D
b0 :
b11111000111111111111100111111111 8
06
1!
#510000
0!
#520000
b11111111 "
b11111000 +
b1111111111111010 =
b0 9
b11111001111111111111101011111111 7
16
b1111100111111111 >
b1111100111111111 D
b1 :
b11111111111110011111111111111010 8
1!
#530000
0!
#540000
b11111011 "
b1111111111111001 *
b1111111111111001 N
b11111111111111111111111111111010 M
b10 H
b10 E
b11111111111111111111111111110111 J
b11111111111111111111111111110111 G
b11111111111111111111111111110111 K
b11111111111111111111111111111001 O
b11111111 +
b1111101011111111 =
b1 9
b11111111111110101111111111111011 7
b1111111111111010 >
b1111111111111010 D
b0 :
b11111001111111111111101011111111 8
06
1!
#550000
0!
#560000
b11111111 "
b11111001 +
b1111111111111011 =
b0 9
b11111010111111111111101111111111 7
16
b1111101011111111 >
b1111101011111111 D
b1 :
b11111111111110101111111111111011 8
1!
#570000
0!
#580000
b11111100 "
b1111111111111010 *
b1111111111111010 N
b11111111111111111111111111111010 O
b11111111111111111111111111110111 I
b11111111111111111111111111110111 F
b11111111111111111111111111110111 L
b10 J
b10 G
b10 K
b10 H
b10 E
b11111111111111111111111111111011 M
b11111111 +
b1111101111111111 =
b1 9
b11111111111110111111111111111100 7
b1111111111111011 >
b1111111111111011 D
b0 :
b11111010111111111111101111111111 8
06
1!
#590000
0!
#600000
b11111111 "
b11111010 +
b1111111111111100 =
b0 9
b11111011111111111111110011111111 7
16
b1111101111111111 >
b1111101111111111 D
b1 :
b11111111111110111111111111111100 8
1!
#610000
0!
#620000
b11111101 "
b1111111111111011 *
b1111111111111011 N
b11111111111111111111111111111100 M
b11111111111111111111111111111000 H
b11111111111111111111111111111000 E
b10 I
b10 F
b10 L
b11111111111111111111111111111011 O
b11111111 +
b1111110011111111 =
b1 9
b11111111111111001111111111111101 7
b1111111111111100 >
b1111111111111100 D
b0 :
b11111011111111111111110011111111 8
06
1!
#630000
0!
#640000
b11111111 "
b11111011 +
b1111111111111101 =
b0 9
b11111100111111111111110111111111 7
16
b1111110011111111 >
b1111110011111111 D
b1 :
b11111111111111001111111111111101 8
1!
#650000
0!
#660000
b11111110 "
b1111111111111100 *
b1111111111111100 N
b11111111111111111111111111111100 O
b11111111111111111111111111111000 J
b11111111111111111111111111111000 G
b11111111111111111111111111111000 K
b11 H
b11 E
b11111111111111111111111111111101 M
b11111111 +
b1111110111111111 =
b1 9
b11111111111111011111111111111110 7
b1111111111111101 >
b1111111111111101 D
b0 :
b11111100111111111111110111111111 8
06
1!
#670000
0!
#680000
b11111111 "
b11111100 +
b1111111111111110 =
b0 9
b11111101111111111111111011111111 7
16
b1111110111111111 >
b1111110111111111 D
b1 :
b11111111111111011111111111111110 8
1!
#690000
0!
#700000
b1111111111111101 *
b1111111111111101 N
b11111111111111111111111111111110 M
b11 J
b11 G
b11 K
b11 H
b11 E
b11111111111111111111111111111000 I
b11111111111111111111111111111000 F
b11111111111111111111111111111000 L
b11111111111111111111111111111101 O
b11111111 +
b1111111011111111 =
b1 9
b11111111111111101111111111111111 7
b1111111111111110 >
b1111111111111110 D
b0 :
b11111101111111111111111011111111 8
06
1!
#710000
0!
#720000
b0 "
b11111101 +
b1111111111111111 =
b0 9
b11111110111111111111111100000000 7
16
b1111111011111111 >
b1111111011111111 D
b1 :
b11111111111111101111111111111111 8
1!
#730000
0!
#740000
b1111111111111110 *
b1111111111111110 N
b11111111111111111111111111111110 O
b11 I
b11 F
b11 L
b11111111111111111111111111111001 H
b11111111111111111111111111111001 E
b11111111111111111111111111111111 M
b11111111 +
b1111111100000000 =
b1 9
b11111111111111110000000000000000 7
b1111111111111111 >
b1111111111111111 D
b0 :
b11111110111111111111111100000000 8
06
1!
#750000
0!
#760000
b11111110 +
b0 =
b0 9
b11111111000000000000000000000000 7
16
b1111111100000000 >
b1111111100000000 D
b1 :
b11111111111111110000000000000000 8
1!
#770000
0!
#780000
b1 "
b1111111111111111 *
b1111111111111111 N
b0 M
b100 H
b100 E
b11111111111111111111111111111001 J
b11111111111111111111111111111001 G
b11111111111111111111111111111001 K
b11111111111111111111111111111111 O
b11111111 +
b1 9
b1 7
b0 >
b0 D
b0 :
b11111111000000000000000000000000 8
06
1!
#790000
0!
#800000
b0 "
b1 =
b0 9
b100000000 7
16
b1 :
b1 8
1!
#810000
0!
#820000
b10 "
b0 +
b0 *
b0 N
b0 O
b11111111111111111111111111111001 I
b11111111111111111111111111111001 F
b11111111111111111111111111111001 L
b100 J
b100 G
b100 K
b100 H
b100 E
b1 M
b100000000 =
b1 9
b10000000000000010 7
b1 >
b1 D
b0 :
b100000000 8
06
1!
#830000
0!
#840000
b0 "
b10 =
b0 9
b1000000000000001000000000 7
16
b100000000 >
b100000000 D
b1 :
b10000000000000010 8
1!
#850000
0!
#860000
b11 "
b1 *
b1 N
b10 M
b11111111111111111111111111111010 H
b11111111111111111111111111111010 E
b100 I
b100 F
b100 L
b1 O
b1000000000 =
b1 9
b100000000000000011 7
b10 >
b10 D
b0 :
b1000000000000001000000000 8
06
1!
#870000
0!
#880000
b0 "
b1 +
b11 =
b0 9
b10000000000000001100000000 7
16
b1000000000 >
b1000000000 D
b1 :
b100000000000000011 8
1!
#890000
0!
#900000
b100 "
b10 *
b10 N
b10 O
b11111111111111111111111111111010 J
b11111111111111111111111111111010 G
b11111111111111111111111111111010 K
b101 H
b101 E
b11 M
b0 +
b1100000000 =
b1 9
b110000000000000100 7
b11 >
b11 D
b0 :
b10000000000000001100000000 8
06
1!
#910000
0!
#920000
b0 "
b10 +
b100 =
b0 9
b11000000000000010000000000 7
16
b1100000000 >
b1100000000 D
b1 :
b110000000000000100 8
1!
#930000
0!
#940000
b101 "
b11 *
b11 N
b100 M
b101 J
b101 G
b101 K
b101 H
b101 E
b11111111111111111111111111111010 I
b11111111111111111111111111111010 F
b11111111111111111111111111111010 L
b11 O
b0 +
b10000000000 =
b1 9
b1000000000000000101 7
b100 >
b100 D
b0 :
b11000000000000010000000000 8
06
1!
#950000
0!
#960000
b0 "
b11 +
b101 =
b0 9
b100000000000000010100000000 7
16
b10000000000 >
b10000000000 D
b1 :
b1000000000000000101 8
1!
#970000
0!
#980000
b110 "
b100 *
b100 N
b100 O
b101 I
b101 F
b101 L
b11111111111111111111111111111011 H
b11111111111111111111111111111011 E
b101 M
b0 +
b10100000000 =
b1 9
b1010000000000000110 7
b101 >
b101 D
b0 :
b100000000000000010100000000 8
06
1!
#990000
0!
#1000000
b0 "
b100 +
b110 =
b0 9
b101000000000000011000000000 7
16
b10100000000 >
b10100000000 D
b1 :
b1010000000000000110 8
1!
#1010000
0!
#1020000
b111 "
b101 *
b101 N
b110 M
b110 H
b110 E
b11111111111111111111111111111011 J
b11111111111111111111111111111011 G
b11111111111111111111111111111011 K
b101 O
b0 +
b11000000000 =
b1 9
b1100000000000000111 7
b110 >
b110 D
b0 :
b101000000000000011000000000 8
06
1!
#1030000
0!
#1040000
b0 "
b101 +
b111 =
b0 9
b110000000000000011100000000 7
16
b11000000000 >
b11000000000 D
b1 :
b1100000000000000111 8
1!
#1050000
0!
#1060000
b1000 "
b110 *
b110 N
b110 O
b11111111111111111111111111111011 I
b11111111111111111111111111111011 F
b11111111111111111111111111111011 L
b110 J
b110 G
b110 K
b110 H
b110 E
b111 M
b0 +
b11100000000 =
b1 9
b1110000000000001000 7
b111 >
b111 D
b0 :
b110000000000000011100000000 8
06
1!
#1070000
0!
#1080000
b0 "
b110 +
b1000 =
b0 9
b111000000000000100000000000 7
16
b11100000000 >
b11100000000 D
b1 :
b1110000000000001000 8
1!
#1090000
0!
#1100000
b1001 "
b111 *
b111 N
b1000 M
b11111111111111111111111111111100 H
b11111111111111111111111111111100 E
b110 I
b110 F
b110 L
b111 O
b0 +
b100000000000 =
b1 9
b10000000000000001001 7
b1000 >
b1000 D
b0 :
b111000000000000100000000000 8
06
1!
#1110000
0!
#1120000
b1100100 "
b111 +
b1001 =
b0 9
b1000000000000000100101100100 7
16
b100000000000 >
b100000000000 D
b1 :
b10000000000000001001 8
1!
#1130000
0!
#1140000
b1101111 "
b1000 *
b1000 N
b1000 O
b11111111111111111111111111111100 J
b11111111111111111111111111111100 G
b11111111111111111111111111111100 K
b111 H
b111 E
b1001 M
b0 +
b100101100100 =
b1 9
b10010110010001101111 7
b1001 >
b1001 D
b0 :
b1000000000000000100101100100 8
06
1!
#1150000
0!
#1160000
b1101110 "
b1000 +
b110010001101111 =
b0 9
b1001011001000110111101101110 7
16
b100101100100 >
b100101100100 D
b1 :
b10010110010001101111 8
1!
#1170000
0!
#1180000
b1001 *
b1001 N
b110010001101111 M
b111 J
b111 G
b111 K
b110010001101100 H
b110010001101100 E
b11111111111111111111111111111100 I
b11111111111111111111111111111100 F
b11111111111111111111111111111100 L
b1001 O
b0 +
b110111101101110 =
b1 9
b1100100011011110110111001101110 7
b110010001101111 >
b110010001101111 D
b0 :
b1001011001000110111101101110 8
06
1!
